{
    "drone":
    {
      "battery_max": 1000,
      "battery_move_cost": 10,
      "speed": 1,
  
      "init_pos": { "X" : 5, "Y" : 7, "Z" : 0},
      "targ_pos": { "X" : 0, "Y" : 3, "Z" : 0}
    }
  }